<svg width="32" height="32" viewBox="0 0 32 32" fill="none" xmlns="http://www.w3.org/2000/svg">
<circle cx="16" cy="16" r="16" fill="#FF8800"/>
<g clip-path="url(#clip0_1368_595)">
<path fill-rule="evenodd" clip-rule="evenodd" d="M16.012 16.3275C13.3 16.3275 11.0464 14.0751 11.0464 11.4099C11.0464 8.6523 13.3 6.3999 16.0132 6.3999C18.8176 6.3999 20.9788 8.6523 20.9788 11.4099C20.9766 12.0591 20.8464 12.7015 20.5954 13.3003C20.3445 13.8991 19.9779 14.4424 19.5166 14.8993C19.0553 15.3561 18.5084 15.7174 17.9073 15.9625C17.3061 16.2076 16.6624 16.3316 16.0132 16.3275H16.012ZM16.012 9.2955C14.8636 9.2955 13.99 10.2603 13.99 11.4099C13.99 12.5583 14.8636 13.4319 16.0132 13.4319C17.2084 13.4319 18.0364 12.5583 18.0364 11.4099C18.0364 10.2603 17.2084 9.2955 16.0132 9.2955H16.012ZM17.9896 20.4183L20.7952 23.1303C21.3472 23.7267 21.3472 24.6003 20.7952 25.1523C20.1976 25.7487 19.2772 25.7487 18.8176 25.1523L16.0132 22.3947L13.3 25.1523C13.024 25.4283 12.6556 25.5651 12.2416 25.5651C11.92 25.5651 11.5528 25.4271 11.23 25.1523C10.678 24.6003 10.678 23.7267 11.23 23.1291L14.0812 20.4171C13.0515 20.112 12.0635 19.6803 11.14 19.1319C10.45 18.7647 10.312 17.8455 10.6792 17.1555C11.14 16.4667 11.9668 16.2831 12.7036 16.7427C13.7007 17.3514 14.8463 17.6734 16.0144 17.6734C17.1826 17.6734 18.3282 17.3514 19.3252 16.7427C20.0608 16.2831 20.9344 16.4667 21.3484 17.1555C21.7624 17.8455 21.5776 18.7635 20.9344 19.1319C20.0608 19.6839 19.0492 20.0979 17.9908 20.4195L17.9896 20.4183Z" fill="white"/>
</g>
<defs>
<clipPath id="clip0_1368_595">
<rect width="19.2" height="19.2" fill="white" transform="translate(6.40002 6.3999)"/>
</clipPath>
</defs>
</svg>
