<svg width="23" height="23" viewBox="0 0 23 23" fill="none" xmlns="http://www.w3.org/2000/svg">
<path d="M19.864 22.224L18.136 20.432C16.216 21.7333 14.072 22.384 11.704 22.384C8.61067 22.384 5.98667 21.328 3.832 19.216C1.67733 17.104 0.6 14.48 0.6 11.344C0.6 8.18667 1.67733 5.56267 3.832 3.472C5.98667 1.36 8.61067 0.303999 11.704 0.303999C14.7973 0.303999 17.4213 1.36 19.576 3.472C21.7307 5.56267 22.808 8.18667 22.808 11.344C22.808 14.3307 21.8053 16.88 19.8 18.992L22.936 22.224H19.864ZM14.36 13.424L18.104 17.264C19.6187 15.6213 20.376 13.648 20.376 11.344C20.376 8.912 19.5227 6.84267 17.816 5.136C16.1307 3.408 14.0933 2.544 11.704 2.544C9.29333 2.544 7.24533 3.39733 5.56 5.104C3.87467 6.81067 3.032 8.89067 3.032 11.344C3.032 13.7973 3.87467 15.8773 5.56 17.584C7.24533 19.2907 9.29333 20.144 11.704 20.144C13.432 20.144 15.0107 19.6747 16.44 18.736L11.288 13.424H14.36Z" fill="#090808"/>
</svg>
